…
"Gather"" the dune_sp data
========================================================
incremental: true



```r
gather(dune_sp, key=species, value = "cover_class", Achimill:Callcusp) 
```

```
# A tibble: 600 x 3
      site  species cover_class
     <chr>    <chr>       <int>
 1  site_1 Achimill           1
 2  site_2 Achimill           3
 3  site_3 Achimill           0
 4  site_4 Achimill           0
 5  site_5 Achimill           2
 6  site_6 Achimill           2
 7  site_7 Achimill           2
 8  site_8 Achimill           0
 9  site_9 Achimill           0
10 site_10 Achimill           4
# ... with 590 more rows
```
…
Exampe: summarise()
========================================================

```r
dune_long <- gather(dune_sp, key=species, value = "cover_class", Achimill:Callcusp) 

dune_summary <- dune_long %>%
  group_by(species) %>%
  summarise(mean = mean(cover_class))

dune_summary
```

```
# A tibble: 30 x 2
    species  mean
      <chr> <dbl>
 1 Achimill  0.80
 2 Agrostol  2.40
 3 Airaprae  0.25
 4 Alopgeni  1.80
 5 Anthodor  1.05
 6 Bellpere  0.65
 7 Bracruta  2.45
 8 Bromhord  0.75
 9 Callcusp  0.50
10 Chenalbu  0.05
# ... with 20 more rows
```
…
